MPSList_Begins
mps 0 126.628558 0
mps 0 126.082040 1 53
mps 0 125.899458 1 27
mps 0 122.063533 1 58
mps 0 116.485239 1 56
mps 1 14.117449 0
mps 2 218.916932 0
mps 2 217.489648 1 37
mps 3 14.117449 0
mps 4 148.484180 0
mps 4 147.116494 1 64
mps 5 195.173824 0
mps 5 195.160193 1 55
mps 5 194.157369 1 60
mps 5 193.137384 1 51
mps 5 192.922680 1 13
mps 6 293.586836 0
mps 6 291.256377 1 11
mps 6 290.581475 1 52
mps 6 281.805618 1 51
mps 7 405.121643 0
mps 8 311.445196 0
mps 8 310.720791 2 45 67
mps 8 304.046392 1 39
mps 8 291.516828 1 46
mps 9 272.098229 0
mps 9 270.982106 2 25 55
mps 9 268.074932 1 52
mps 9 267.773728 1 51
mps 10 35.768128 0
mps 10 34.396050 1 27
mps 11 177.682757 0
mps 11 175.352298 1 6
mps 11 166.256709 1 51
mps 11 164.210262 1 52
mps 12 315.083089 0
mps 12 314.161293 1 13
mps 12 313.484550 1 63
mps 13 293.586836 0
mps 13 292.665040 1 12
mps 13 291.335692 1 5
mps 14 42.033724 0
mps 14 41.465400 1 66
mps 15 161.941016 0
mps 15 161.863057 1 68
mps 16 361.266219 0
mps 16 360.720977 1 46
mps 16 359.648075 1 39
mps 16 358.191849 1 38
mps 16 335.167889 1 56
mps 16 327.106445 2 52 56
mps 17 582.034983 0
mps 17 581.956588 1 38
mps 17 554.809175 1 56
mps 18 98.745121 0
mps 19 537.588748 0
mps 20 574.511746 0
mps 21 432.590901 0
mps 21 424.018291 1 38
mps 21 420.430451 1 58
mps 21 373.393368 1 56
mps 22 338.092715 0
mps 22 336.580917 1 67
mps 22 334.881627 1 27
mps 23 285.770678 0
mps 23 285.230942 1 64
mps 23 285.223459 1 62
mps 23 284.814429 1 39
mps 23 282.798830 2 38 64
mps 23 248.818784 1 24
mps 24 315.083089 0
mps 24 307.807592 1 50
mps 24 278.131195 1 23
mps 24 274.036448 2 23 50
mps 25 216.414410 0
mps 25 214.738879 2 9 55
mps 25 214.519665 1 34
mps 26 201.253338 0
mps 26 200.792937 1 27
mps 27 89.027872 0
mps 27 88.671983 1 56
mps 27 88.567470 1 26
mps 27 88.298772 1 0
mps 27 88.061053 1 53
mps 27 87.655794 1 10
mps 27 85.816783 1 22
mps 28 171.521279 0
mps 28 171.165943 1 67
mps 29 350.920801 0
mps 30 211.311078 0
mps 31 231.674906 0
mps 32 441.491261 0
mps 32 441.097385 1 50
mps 33 200.695681 0
mps 34 48.004644 0
mps 34 46.109899 1 25
mps 35 254.887511 0
mps 35 237.282726 1 36
mps 36 161.941016 0
mps 36 161.618043 1 65
mps 36 159.550854 1 64
mps 36 144.336231 1 35
mps 37 126.628558 0
mps 37 125.201274 1 2
mps 38 264.697196 0
mps 38 264.618800 1 17
mps 38 264.578585 1 43
mps 38 261.888408 1 41
mps 38 261.622826 1 16
mps 38 257.608970 1 46
mps 38 256.124586 1 21
mps 38 244.093928 1 58
mps 38 167.027323 1 56
mps 39 338.825288 0
mps 39 338.725348 1 41
mps 39 338.692775 1 45
mps 39 337.869039 1 23
mps 39 337.207145 1 16
mps 39 337.201546 1 51
mps 39 336.625304 2 15 41
mps 39 335.471333 2 50 58
mps 39 335.339479 2 45 58
mps 39 331.426484 1 8
mps 39 325.719042 1 56
mps 39 324.421964 2 8 56
mps 39 250.306456 1 46
mps 40 506.080748 0
mps 41 320.759116 0
mps 41 320.659176 1 39
mps 41 319.194920 2 15 39
mps 41 319.134609 1 68
mps 41 318.338100 1 48
mps 41 317.950329 1 38
mps 41 315.954485 1 58
mps 41 314.583949 2 39 58
mps 41 308.989989 1 56
mps 42 347.260339 0
mps 43 290.525754 0
mps 43 290.407143 1 38
mps 44 334.164722 0
mps 44 333.592153 1 66
mps 44 333.011054 1 60
mps 45 349.462080 0
mps 45 349.329566 1 39
mps 45 348.767438 2 39 58
mps 45 346.927190 1 46
mps 46 485.498002 0
mps 46 484.952760 1 16
mps 46 484.661440 1 58
mps 46 482.963112 1 45
mps 46 478.409776 1 38
mps 46 465.569634 1 8
mps 46 441.046681 1 56
mps 46 434.412673 2 8 56
mps 46 396.979170 1 39
mps 46 381.620910 2 39 56
mps 47 353.821543 0
mps 47 353.093231 1 60
mps 47 352.700279 1 66
mps 48 35.768128 0
mps 48 33.347112 1 41
mps 49 203.406647 0
mps 49 184.441356 1 52
mps 50 126.628558 0
mps 50 126.234682 1 32
mps 50 125.061065 2 39 58
mps 50 119.353061 1 24
mps 50 114.210082 1 57
mps 51 139.685958 0
mps 51 138.062216 1 39
mps 51 137.649518 1 5
mps 51 135.361457 1 9
mps 51 130.404814 1 55
mps 51 128.259910 1 11
mps 51 127.904740 1 6
mps 51 127.005844 2 11 55
mps 51 125.354162 2 6 55
mps 51 109.898299 1 52
mps 51 92.650727 2 52 55
mps 52 165.181042 0
mps 52 162.175681 1 6
mps 52 161.157745 1 9
mps 52 160.851034 2 16 56
mps 52 151.708547 1 11
mps 52 146.215751 1 49
mps 52 138.526644 2 11 49
mps 52 135.393382 1 51
mps 52 131.604131 2 51 55
mps 52 130.796401 2 49 51
mps 53 122.764942 0
mps 53 122.218424 1 0
mps 53 121.798123 1 27
mps 53 121.023787 2 30 54
mps 54 93.560345 0
mps 54 91.741255 2 30 53
mps 55 84.387967 0
mps 55 84.374336 1 5
mps 55 84.269547 2 5 63
mps 55 82.552055 2 9 25
mps 55 75.275453 1 68
mps 55 75.106823 1 51
mps 55 74.235838 2 51 68
mps 55 71.317572 2 51 52
mps 55 53.832091 1 59
mps 56 341.580613 0
mps 56 341.224724 1 27
mps 56 331.437294 1 0
mps 56 329.811486 1 41
mps 56 328.474367 1 39
mps 56 325.485270 1 57
mps 56 325.449052 2 0 41
mps 56 325.211696 2 0 39
mps 56 324.538564 2 0 57
mps 56 322.927868 2 39 41
mps 56 321.373340 2 39 57
mps 56 321.201947 2 41 57
mps 56 315.482283 1 16
mps 56 314.626133 2 0 16
mps 56 314.354805 1 17
mps 56 311.076362 2 17 39
mps 56 309.578788 2 16 41
mps 56 307.055804 2 16 52
mps 56 297.129293 1 46
mps 56 287.128400 1 58
mps 56 286.525388 2 27 58
mps 56 286.234250 2 41 58
mps 56 282.383080 1 21
mps 56 281.637698 2 16 21
mps 56 279.781543 2 39 58
mps 56 276.394496 2 16 58
mps 56 276.161132 2 21 46
mps 56 275.781074 2 21 39
mps 56 274.197358 2 57 58
mps 56 271.804473 2 21 41
mps 56 269.313569 2 17 58
mps 56 263.409572 2 46 58
mps 56 255.921326 2 21 58
mps 56 243.910741 1 38
mps 56 241.055163 2 38 41
mps 56 240.598790 2 17 38
mps 56 237.542274 2 38 39
mps 56 237.240008 2 0 38
mps 56 236.761538 2 16 38
mps 56 230.701468 2 38 46
mps 56 218.067971 2 38 58
mps 56 209.062671 2 21 38
mps 57 622.790871 0
mps 57 610.372395 1 50
mps 57 606.695528 1 56
mps 58 344.058314 0
mps 58 343.221752 1 46
mps 58 341.943261 2 16 52
mps 58 341.161705 2 39 50
mps 58 339.493289 1 0
mps 58 339.253683 1 41
mps 58 338.467369 2 8 41
mps 58 331.897864 1 21
mps 58 323.455046 1 38
mps 58 289.606100 1 56
mps 59 281.651710 0
mps 59 251.095834 1 55
mps 60 235.562423 0
mps 60 234.834111 1 47
mps 60 234.545968 1 5
mps 60 234.408756 1 44
mps 60 231.898651 2 44 47
mps 60 214.668539 1 64
mps 60 213.122683 2 64 65
mps 61 345.736093 0
mps 61 340.769420 1 64
mps 61 282.659288 1 65
mps 61 275.741117 2 64 65
mps 62 203.402102 0
mps 62 202.854883 1 23
mps 62 113.545037 1 63
mps 63 203.402102 0
mps 63 201.803562 1 12
mps 63 113.545037 1 62
mps 64 353.821543 0
mps 64 353.281807 1 23
mps 64 352.453856 1 4
mps 64 351.431381 1 36
mps 64 349.900313 2 23 38
mps 64 348.854870 1 61
mps 64 332.927659 1 60
mps 64 332.648924 2 60 61
mps 64 332.045981 2 60 65
mps 64 330.124373 2 4 60
mps 65 352.608059 0
mps 65 352.431081 1 69
mps 65 352.285086 1 36
mps 65 289.531253 1 61
mps 66 89.027872 0
mps 66 88.459548 1 14
mps 66 88.455303 1 44
mps 66 88.436397 2 14 44
mps 66 87.906608 1 47
mps 67 144.988322 0
mps 67 144.632986 1 28
mps 67 143.476524 1 22
mps 68 233.274830 0
mps 68 233.196871 1 15
mps 68 231.650324 1 41
mps 68 224.162316 1 55
mps 69 206.073063 0
mps 69 205.896086 1 65
MPSList_Ends