MPSList_Begins
mps 0 59.065747 0 
mps 0 58.875319 1 41 
mps 0 58.875319 1 40 
mps 0 58.115804 1 67 
mps 0 56.675416 1 19 
mps 0 56.528176 2 55 67 
mps 0 56.389889 2 41 46 
mps 0 56.389889 2 40 46 
mps 0 14.537754 1 70 
mps 1 11.401242 0 
mps 1 10.785566 1 11 
mps 1 10.785566 1 7 
mps 1 10.543991 1 33 
mps 1 10.253497 1 30 
mps 1 9.888969 1 28 
mps 1 9.888969 1 27 
mps 1 9.398744 1 4 
mps 1 9.398744 1 5 
mps 1 8.643856 1 37 
mps 1 8.643856 1 45 
mps 2 17.465982 0 
mps 2 14.708597 1 42 
mps 3 22.761114 0 
mps 3 21.413874 1 55 
mps 3 18.663973 1 58 
mps 3 6.643856 1 69 
mps 4 22.761114 0 
mps 4 22.671790 2 19 61 
mps 4 21.114103 2 23 24 
mps 4 20.758616 1 1 
mps 4 20.758616 1 57 
mps 4 20.659770 1 11 
mps 4 20.659770 1 7 
mps 4 20.143214 1 33 
mps 4 19.942734 2 19 67 
mps 4 19.503540 1 30 
mps 4 19.329556 2 7 57 
mps 4 19.329556 2 11 57 
mps 4 18.797487 2 33 57 
mps 4 18.142465 2 30 57 
mps 4 17.783252 1 12 
mps 4 17.783252 1 8 
mps 4 17.138190 1 18 
mps 4 14.693875 1 37 
mps 4 14.693875 1 45 
mps 4 13.287712 2 37 57 
mps 4 13.287712 2 45 57 
mps 4 6.643856 1 5 
mps 5 22.761114 0 
mps 5 22.671790 2 19 61 
mps 5 21.114103 2 23 24 
mps 5 20.758616 1 1 
mps 5 20.758616 1 57 
mps 5 20.659770 1 7 
mps 5 20.659770 1 11 
mps 5 20.143214 1 33 
mps 5 19.942734 2 19 67 
mps 5 19.503540 1 30 
mps 5 19.329556 2 7 57 
mps 5 19.329556 2 11 57 
mps 5 18.797487 2 33 57 
mps 5 18.142465 2 30 57 
mps 5 17.783252 1 8 
mps 5 17.783252 1 12 
mps 5 17.138190 1 18 
mps 5 14.693875 1 37 
mps 5 14.693875 1 45 
mps 5 13.287712 2 37 57 
mps 5 13.287712 2 45 57 
mps 5 6.643856 1 4 
mps 6 -0.000000 0 
mps 7 39.914293 0 
mps 7 39.758473 1 30 
mps 7 39.298617 1 1 
mps 7 37.812949 1 5 
mps 7 37.812949 1 4 
mps 7 35.134011 1 37 
mps 7 35.134011 1 36 
mps 7 35.134011 1 45 
mps 7 32.547456 2 36 45 
mps 7 32.547456 2 36 37 
mps 7 14.633439 1 33 
mps 7 6.643856 1 11 
mps 8 66.752884 0 
mps 8 66.263653 1 10 
mps 8 66.150634 1 23 
mps 8 66.150634 1 21 
mps 8 65.624078 1 29 
mps 8 64.627788 1 74 
mps 8 64.627788 1 15 
mps 8 64.627788 1 14 
mps 8 64.627788 1 13 
mps 8 64.627788 1 73 
mps 8 64.627788 1 37 
mps 8 64.627788 1 45 
mps 8 63.745058 1 50 
mps 8 61.775022 1 5 
mps 8 61.775022 1 4 
mps 8 58.599903 1 46 
mps 8 58.241205 1 59 
mps 8 58.029998 2 29 59 
mps 8 57.388780 1 61 
mps 8 56.938720 2 15 59 
mps 8 56.938720 2 13 59 
mps 8 56.938720 2 14 59 
mps 8 56.462546 1 67 
mps 8 56.049536 2 13 61 
mps 8 56.049536 2 15 61 
mps 8 56.049536 2 14 61 
mps 8 55.828572 2 5 59 
mps 8 55.828572 2 4 59 
mps 8 55.553002 2 4 46 
mps 8 55.553002 2 5 46 
mps 8 55.420527 2 65 67 
mps 8 55.420527 2 64 67 
mps 8 55.087006 2 67 74 
mps 8 55.087006 2 15 67 
mps 8 55.087006 2 14 67 
mps 8 55.087006 2 13 67 
mps 8 55.087006 2 67 73 
mps 8 55.011553 2 5 61 
mps 8 55.011553 2 4 61 
mps 8 54.124990 2 4 67 
mps 8 54.124990 2 5 67 
mps 8 48.326812 1 19 
mps 8 47.941266 2 19 46 
mps 8 47.183537 2 19 29 
mps 8 46.190022 2 15 19 
mps 8 46.190022 2 14 19 
mps 8 46.190022 2 13 19 
mps 8 30.616717 1 20 
mps 8 26.311356 2 15 20 
mps 8 26.311356 2 14 20 
mps 8 26.311356 2 13 20 
mps 8 20.347962 1 18 
mps 8 13.287712 2 13 18 
mps 8 13.287712 2 14 18 
mps 8 13.287712 2 15 18 
mps 8 6.643856 1 12 
mps 9 53.313524 0 
mps 9 50.375372 1 48 
mps 9 49.227028 2 48 49 
mps 9 44.306984 1 55 
mps 9 43.835316 1 56 
mps 9 43.496932 2 55 57 
mps 9 43.003068 2 56 57 
mps 10 92.639274 0 
mps 10 92.515785 1 73 
mps 10 92.515785 1 74 
mps 10 92.485259 1 24 
mps 10 92.150043 1 12 
mps 10 92.150043 1 19 
mps 10 92.150043 1 8 
mps 10 92.150043 1 23 
mps 10 90.359133 1 18 
mps 10 87.934833 1 46 
mps 10 87.693739 1 20 
mps 10 87.534498 2 18 46 
mps 10 86.553878 2 20 46 
mps 10 86.030014 2 46 49 
mps 10 82.482851 1 67 
mps 10 82.015778 2 46 67 
mps 10 74.637456 1 59 
mps 10 72.361929 1 61 
mps 11 39.914293 0 
mps 11 39.758473 1 30 
mps 11 39.298617 1 1 
mps 11 37.812949 1 5 
mps 11 37.812949 1 4 
mps 11 35.134011 1 37 
mps 11 35.134011 1 36 
mps 11 35.134011 1 45 
mps 11 32.547456 2 36 45 
mps 11 32.547456 2 36 37 
mps 11 14.633439 1 33 
mps 11 6.643856 1 7 
mps 12 66.752884 0 
mps 12 66.263653 1 10 
mps 12 66.150634 1 21 
mps 12 66.150634 1 23 
mps 12 65.624078 1 29 
mps 12 64.627788 1 13 
mps 12 64.627788 1 14 
mps 12 64.627788 1 15 
mps 12 64.627788 1 74 
mps 12 64.627788 1 73 
mps 12 64.627788 1 37 
mps 12 64.627788 1 45 
mps 12 63.745058 1 50 
mps 12 61.775022 1 4 
mps 12 61.775022 1 5 
mps 12 58.599903 1 46 
mps 12 58.241205 1 59 
mps 12 58.029998 2 29 59 
mps 12 57.388780 1 61 
mps 12 56.938720 2 15 59 
mps 12 56.938720 2 13 59 
mps 12 56.938720 2 14 59 
mps 12 56.462546 1 67 
mps 12 56.049536 2 13 61 
mps 12 56.049536 2 15 61 
mps 12 56.049536 2 14 61 
mps 12 55.828572 2 5 59 
mps 12 55.828572 2 4 59 
mps 12 55.553002 2 4 46 
mps 12 55.553002 2 5 46 
mps 12 55.420527 2 65 67 
mps 12 55.420527 2 64 67 
mps 12 55.087006 2 67 74 
mps 12 55.087006 2 15 67 
mps 12 55.087006 2 14 67 
mps 12 55.087006 2 13 67 
mps 12 55.087006 2 67 73 
mps 12 55.011553 2 5 61 
mps 12 55.011553 2 4 61 
mps 12 54.124990 2 4 67 
mps 12 54.124990 2 5 67 
mps 12 48.326812 1 19 
mps 12 47.941266 2 19 46 
mps 12 47.183537 2 19 29 
mps 12 46.190022 2 15 19 
mps 12 46.190022 2 14 19 
mps 12 46.190022 2 13 19 
mps 12 30.616717 1 20 
mps 12 26.311356 2 15 20 
mps 12 26.311356 2 14 20 
mps 12 26.311356 2 13 20 
mps 12 20.347962 1 18 
mps 12 13.287712 2 13 18 
mps 12 13.287712 2 14 18 
mps 12 13.287712 2 15 18 
mps 12 6.643856 1 8 
mps 13 17.465982 0 
mps 13 15.340887 1 12 
mps 13 15.340887 1 8 
mps 13 13.287712 2 8 18 
mps 13 13.287712 2 12 18 
mps 13 6.643856 1 15 
mps 13 6.643856 1 14 
mps 14 17.465982 0 
mps 14 15.340887 1 8 
mps 14 15.340887 1 12 
mps 14 13.287712 2 8 18 
mps 14 13.287712 2 12 18 
mps 14 6.643856 1 15 
mps 14 6.643856 1 13 
mps 15 17.465982 0 
mps 15 15.340887 1 8 
mps 15 15.340887 1 12 
mps 15 13.287712 2 8 18 
mps 15 13.287712 2 12 18 
mps 15 6.643856 1 14 
mps 15 6.643856 1 13 
mps 16 -0.000000 0 
mps 17 -0.000000 0 
mps 18 61.745809 0 
mps 18 59.602260 1 50 
mps 18 59.465668 1 10 
mps 18 59.207102 1 73 
mps 18 59.207102 1 74 
mps 18 59.207102 1 37 
mps 18 59.207102 1 45 
mps 18 56.122885 1 4 
mps 18 56.122885 1 5 
mps 18 56.060023 2 5 10 
mps 18 56.060023 2 4 10 
mps 18 54.085746 1 46 
mps 18 53.685411 2 10 46 
mps 18 50.446771 1 59 
mps 18 50.039581 2 4 46 
mps 18 50.039581 2 5 46 
mps 18 49.555613 1 61 
mps 18 48.591160 1 67 
mps 18 46.524363 2 5 59 
mps 18 46.524363 2 4 59 
mps 18 46.077585 2 65 67 
mps 18 46.077585 2 64 67 
mps 18 45.705845 2 67 74 
mps 18 45.705845 2 67 73 
mps 18 45.668611 2 5 61 
mps 18 45.668611 2 4 61 
mps 18 44.743828 2 4 67 
mps 18 44.743828 2 5 67 
mps 18 44.575425 3 4 67 74 
mps 18 44.575425 3 5 67 74 
mps 18 44.575425 3 4 67 73 
mps 18 44.575425 3 5 67 73 
mps 18 39.652394 1 19 
mps 18 39.012373 2 19 67 
mps 18 38.491162 2 19 46 
mps 18 36.112525 2 19 59 
mps 18 35.564279 2 19 61 
mps 18 19.701648 1 20 
mps 18 18.484965 2 20 57 
mps 18 18.253515 2 4 20 
mps 18 18.253515 2 5 20 
mps 18 15.340887 1 8 
mps 18 15.340887 1 12 
mps 18 13.287712 2 12 13 
mps 18 13.287712 2 12 15 
mps 18 13.287712 2 8 15 
mps 18 13.287712 2 8 14 
mps 18 13.287712 2 12 14 
mps 18 13.287712 2 8 13 
mps 19 66.752884 0 
mps 19 66.263653 1 10 
mps 19 66.252814 1 43 
mps 19 66.235952 1 70 
mps 19 65.384603 2 5 10 
mps 19 65.384603 2 4 10 
mps 19 64.362553 1 0 
mps 19 64.259184 1 46 
mps 19 63.051776 2 4 46 
mps 19 63.051776 2 5 46 
mps 19 54.498983 1 59 
mps 19 53.482551 1 61 
mps 19 51.431329 2 5 59 
mps 19 51.431329 2 4 59 
mps 19 50.289671 2 5 61 
mps 19 50.289671 2 4 61 
mps 19 50.122290 1 20 
mps 19 48.326812 1 12 
mps 19 48.326812 1 8 
mps 19 47.861646 2 0 8 
mps 19 47.861646 2 0 12 
mps 19 46.742424 2 20 59 
mps 19 45.990822 2 20 61 
mps 19 45.635252 2 12 59 
mps 19 45.635252 2 8 59 
mps 19 44.962259 2 12 61 
mps 19 44.962259 2 8 61 
mps 19 44.659468 1 18 
mps 19 42.250577 1 67 
mps 19 42.123880 2 37 67 
mps 19 42.123880 2 45 67 
mps 19 40.695742 2 20 67 
mps 19 40.164737 2 18 59 
mps 19 39.491217 2 18 61 
mps 19 36.368312 2 4 67 
mps 19 36.368312 2 5 67 
mps 19 35.426678 2 8 67 
mps 19 35.426678 2 12 67 
mps 19 32.671790 2 18 67 
mps 20 61.745809 0 
mps 20 60.626481 1 65 
mps 20 60.626481 1 64 
mps 20 60.605277 1 41 
mps 20 60.605277 1 40 
mps 20 60.448625 2 41 70 
mps 20 60.448625 2 40 70 
mps 20 59.602260 1 50 
mps 20 59.207102 1 74 
mps 20 59.207102 1 73 
mps 20 59.207102 1 37 
mps 20 59.207102 1 45 
mps 20 56.800275 1 10 
mps 20 50.310798 1 46 
mps 20 48.929843 2 10 46 
mps 20 46.010794 1 59 
mps 20 45.115216 1 19 
mps 20 44.956142 1 61 
mps 20 44.735774 2 19 64 
mps 20 44.735774 2 19 65 
mps 20 43.812321 1 67 
mps 20 43.561863 2 61 67 
mps 20 43.497817 2 10 19 
mps 20 42.377512 2 65 67 
mps 20 42.377512 2 64 67 
mps 20 42.257485 2 19 67 
mps 20 40.443302 2 19 46 
mps 20 39.681893 2 67 74 
mps 20 39.681893 2 67 73 
mps 20 38.254235 2 19 59 
mps 20 37.464413 2 19 61 
mps 20 25.609643 1 8 
mps 20 25.609643 1 12 
mps 20 24.122179 2 12 59 
mps 20 24.122179 2 8 59 
mps 20 23.977668 2 12 61 
mps 20 23.977668 2 8 61 
mps 20 23.817037 2 8 67 
mps 20 23.817037 2 12 67 
mps 20 19.701648 1 18 
mps 21 66.752884 0 
mps 21 66.150634 1 8 
mps 21 66.150634 1 12 
mps 21 65.745397 1 48 
mps 21 65.404398 2 34 48 
mps 21 64.627788 1 37 
mps 21 64.627788 1 45 
mps 21 30.616717 1 24 
mps 21 29.048861 2 4 24 
mps 21 29.048861 2 5 24 
mps 21 26.311356 2 24 45 
mps 21 26.311356 2 24 37 
mps 21 19.866888 1 23 
mps 21 17.977668 2 23 26 
mps 22 36.066420 0 
mps 22 10.785566 1 34 
mps 23 66.752884 0 
mps 23 66.347612 1 59 
mps 23 66.263653 1 10 
mps 23 66.150634 1 8 
mps 23 66.150634 1 12 
mps 23 65.918094 1 61 
mps 23 64.627788 1 37 
mps 23 64.627788 1 45 
mps 23 63.503645 1 48 
mps 23 20.347962 1 24 
mps 23 19.866888 1 21 
mps 23 19.329556 2 11 24 
mps 23 19.329556 2 7 24 
mps 23 18.797487 2 24 33 
mps 23 18.142465 2 24 30 
mps 23 17.977668 2 21 26 
mps 23 16.042600 2 4 24 
mps 23 16.042600 2 21 24 
mps 23 16.042600 2 5 24 
mps 23 13.287712 2 24 45 
mps 23 13.287712 2 24 37 
mps 24 61.745809 0 
mps 24 61.591794 1 10 
mps 24 58.152199 1 48 
mps 24 25.609643 1 21 
mps 24 15.340887 1 23 
mps 24 13.287712 2 23 33 
mps 24 13.287712 2 23 30 
mps 24 13.287712 2 7 23 
mps 24 13.287712 2 23 45 
mps 24 13.287712 2 5 23 
mps 24 13.287712 2 4 23 
mps 24 13.287712 2 23 37 
mps 24 13.287712 2 11 23 
mps 25 -0.000000 0 
mps 26 53.313524 0 
mps 26 51.496414 2 49 50 
mps 27 27.551147 0 
mps 27 26.038874 1 1 
mps 27 19.503540 1 30 
mps 27 14.679002 1 32 
mps 27 13.287712 2 1 32 
mps 27 6.643856 1 28 
mps 28 27.551147 0 
mps 28 26.038874 1 1 
mps 28 19.503540 1 30 
mps 28 14.679002 1 32 
mps 28 13.287712 2 1 32 
mps 28 6.643856 1 27 
mps 29 103.062087 0 
mps 29 103.040627 1 44 
mps 29 103.040627 1 32 
mps 29 102.613798 1 58 
mps 29 101.933282 1 12 
mps 29 101.933282 1 8 
mps 29 101.891088 1 51 
mps 29 101.281350 1 49 
mps 30 31.961624 0 
mps 30 31.959638 2 23 24 
mps 30 31.805803 1 7 
mps 30 31.805803 1 11 
mps 30 31.799302 2 7 20 
mps 30 31.799302 2 11 20 
mps 30 31.799302 2 7 18 
mps 30 31.799302 2 11 18 
mps 30 31.689013 2 7 23 
mps 30 31.689013 2 11 21 
mps 30 31.689013 2 7 21 
mps 30 31.689013 2 11 23 
mps 30 31.320783 1 33 
mps 30 30.813879 1 1 
mps 30 30.813879 1 31 
mps 30 28.704050 1 5 
mps 30 28.704050 1 4 
mps 30 28.704050 1 32 
mps 30 26.787070 2 4 32 
mps 30 26.787070 2 5 32 
mps 30 25.994251 1 37 
mps 30 25.994251 1 45 
mps 30 24.047531 2 32 45 
mps 30 24.047531 2 32 37 
mps 30 23.914017 1 28 
mps 30 23.914017 1 27 
mps 31 11.401242 0 
mps 31 10.253497 1 30 
mps 32 22.761114 0 
mps 32 22.739653 1 29 
mps 32 19.503540 1 30 
mps 32 9.888969 1 28 
mps 32 9.888969 1 27 
mps 33 36.066420 0 
mps 33 35.425580 1 30 
mps 33 35.209169 1 1 
mps 33 33.448520 1 4 
mps 33 33.448520 1 5 
mps 33 30.754069 1 37 
mps 33 30.754069 1 36 
mps 33 30.754069 1 45 
mps 33 30.037113 2 4 36 
mps 33 30.037113 2 5 36 
mps 33 27.312760 2 36 45 
mps 33 27.312760 2 36 37 
mps 33 10.785566 1 7 
mps 33 10.785566 1 11 
mps 34 39.914293 0 
mps 34 14.633439 1 22 
mps 35 -0.000000 0 
mps 36 17.465982 0 
mps 36 16.312790 1 50 
mps 36 12.685700 1 11 
mps 36 12.685700 1 7 
mps 36 12.153631 1 33 
mps 37 17.465982 0 
mps 37 15.340887 1 8 
mps 37 15.340887 1 23 
mps 37 15.340887 1 21 
mps 37 15.340887 1 12 
mps 37 14.927275 1 20 
mps 37 14.927275 1 18 
mps 37 14.708597 1 1 
mps 37 13.287712 2 23 24 
mps 37 12.685700 1 7 
mps 37 12.685700 1 11 
mps 37 12.153631 1 33 
mps 37 11.498609 1 30 
mps 37 9.398744 1 4 
mps 37 9.398744 1 5 
mps 37 6.643856 1 45 
mps 38 -0.000000 0 
mps 39 -0.000000 0 
mps 40 100.971975 0 
mps 40 100.781547 1 0 
mps 40 100.338216 1 44 
mps 40 100.050662 1 61 
mps 40 99.831443 1 20 
mps 40 99.597300 1 70 
mps 40 99.570601 2 0 64 
mps 40 99.570601 2 0 65 
mps 40 99.121920 1 59 
mps 40 98.844928 2 12 70 
mps 40 98.844928 2 8 70 
mps 40 98.794465 2 18 70 
mps 40 98.007086 2 0 20 
mps 40 97.378365 1 43 
mps 40 95.833061 2 20 70 
mps 40 93.462370 1 46 
mps 40 92.870590 2 43 61 
mps 40 91.387272 2 43 59 
mps 40 88.275739 2 0 46 
mps 40 84.296014 2 46 70 
mps 40 76.139255 2 43 46 
mps 40 74.880014 3 0 43 46 
mps 40 71.163749 3 43 46 70 
mps 40 6.643856 1 41 
mps 41 100.971975 0 
mps 41 100.781547 1 0 
mps 41 100.338216 1 44 
mps 41 100.050662 1 61 
mps 41 99.831443 1 20 
mps 41 99.597300 1 70 
mps 41 99.570601 2 0 64 
mps 41 99.570601 2 0 65 
mps 41 99.121920 1 59 
mps 41 98.844928 2 12 70 
mps 41 98.844928 2 8 70 
mps 41 98.794465 2 18 70 
mps 41 98.007086 2 0 20 
mps 41 97.378365 1 43 
mps 41 95.833061 2 20 70 
mps 41 93.462370 1 46 
mps 41 92.870590 2 43 61 
mps 41 91.387272 2 43 59 
mps 41 88.275739 2 0 46 
mps 41 84.296014 2 46 70 
mps 41 76.139255 2 43 46 
mps 41 74.880014 3 0 43 46 
mps 41 71.163749 3 43 46 70 
mps 41 6.643856 1 40 
mps 42 11.401242 0 
mps 42 8.643856 1 2 
mps 43 61.745809 0 
mps 43 61.245740 1 19 
mps 43 58.152199 1 40 
mps 43 58.152199 1 41 
mps 43 57.872902 2 41 61 
mps 43 57.872902 2 40 61 
mps 43 57.331795 2 40 59 
mps 43 57.331795 2 41 59 
mps 43 47.704947 2 41 46 
mps 43 47.704947 2 40 46 
mps 44 22.761114 0 
mps 44 22.739653 1 29 
mps 44 22.127355 1 48 
mps 44 22.127355 1 40 
mps 44 22.127355 1 41 
mps 45 17.465982 0 
mps 45 15.340887 1 23 
mps 45 15.340887 1 21 
mps 45 15.340887 1 8 
mps 45 15.340887 1 12 
mps 45 14.927275 1 20 
mps 45 14.927275 1 18 
mps 45 14.708597 1 1 
mps 45 13.287712 2 23 24 
mps 45 12.685700 1 7 
mps 45 12.685700 1 11 
mps 45 12.153631 1 33 
mps 45 11.498609 1 30 
mps 45 9.398744 1 4 
mps 45 9.398744 1 5 
mps 45 6.643856 1 37 
mps 46 85.996565 0 
mps 46 85.771138 1 50 
mps 46 85.640576 2 47 68 
mps 46 85.640576 2 51 68 
mps 46 85.346772 1 73 
mps 46 85.346772 1 74 
mps 46 84.425091 1 65 
mps 46 84.425091 1 64 
mps 46 83.502866 1 19 
mps 46 82.877812 2 19 64 
mps 46 82.877812 2 19 65 
mps 46 81.292125 1 10 
mps 46 81.093976 2 10 50 
mps 46 78.598775 2 10 49 
mps 46 78.486960 1 40 
mps 46 78.486960 1 41 
mps 46 78.336502 1 18 
mps 46 77.843585 1 12 
mps 46 77.843585 1 8 
mps 46 77.263753 2 10 40 
mps 46 77.263753 2 10 41 
mps 46 76.839232 2 12 68 
mps 46 76.839232 2 8 68 
mps 46 76.412879 2 18 40 
mps 46 76.412879 2 18 41 
mps 46 76.001530 2 0 40 
mps 46 76.001530 2 0 41 
mps 46 75.511867 2 10 18 
mps 46 75.501526 2 12 41 
mps 46 75.501526 2 8 41 
mps 46 75.501526 2 12 40 
mps 46 75.501526 2 8 40 
mps 46 74.978339 2 8 10 
mps 46 74.978339 2 10 12 
mps 46 74.561554 1 20 
mps 46 74.272141 2 20 40 
mps 46 74.272141 2 20 41 
mps 46 73.421693 2 10 20 
mps 46 72.864336 2 41 70 
mps 46 72.864336 2 40 70 
mps 46 71.461982 1 67 
mps 46 70.994909 2 10 67 
mps 46 68.912725 2 65 67 
mps 46 68.912725 2 64 67 
mps 46 68.039707 2 41 43 
mps 46 68.039707 2 40 43 
mps 46 67.911320 3 0 41 43 
mps 46 67.911320 3 0 40 43 
mps 46 67.134101 2 41 67 
mps 46 67.134101 2 40 67 
mps 46 66.009566 3 40 43 67 
mps 46 66.009566 3 41 43 67 
mps 46 64.693953 3 40 43 70 
mps 46 64.693953 3 41 43 70 
mps 46 59.433539 1 61 
mps 46 59.361566 2 41 61 
mps 46 59.361566 2 40 61 
mps 46 59.012536 2 51 61 
mps 46 58.553634 3 51 61 68 
mps 46 56.435618 1 59 
mps 46 56.232688 2 59 68 
mps 46 55.459903 2 51 59 
mps 46 53.871035 2 50 61 
mps 46 51.439832 3 51 59 68 
mps 46 50.651202 2 50 59 
mps 47 27.551147 0 
mps 47 26.038874 1 53 
mps 47 20.729021 1 54 
mps 47 17.909086 1 51 
mps 48 100.971975 0 
mps 48 100.338216 1 44 
mps 48 99.964488 1 21 
mps 48 99.599149 2 21 34 
mps 48 98.033824 1 9 
mps 48 97.722737 1 23 
mps 48 97.418827 2 9 46 
mps 48 97.378365 1 24 
mps 48 95.960570 1 49 
mps 48 95.574164 2 24 49 
mps 48 95.410865 2 49 68 
mps 48 95.325884 2 23 49 
mps 48 93.315082 1 56 
mps 48 92.869278 2 21 56 
mps 48 92.714713 2 56 58 
mps 48 91.964753 1 55 
mps 48 91.165072 2 23 56 
mps 48 91.165032 2 21 55 
mps 48 90.567707 2 24 56 
mps 48 89.461976 2 23 55 
mps 48 89.019716 2 9 49 
mps 48 88.810511 2 24 55 
mps 48 57.293913 2 49 56 
mps 48 54.055580 3 49 56 58 
mps 48 53.616343 2 49 55 
mps 49 85.996565 0 
mps 49 84.215828 1 29 
mps 49 84.201830 2 26 50 
mps 49 80.985161 1 48 
mps 49 79.836816 2 9 48 
mps 49 51.673556 2 48 56 
mps 49 49.616123 2 48 55 
mps 50 79.338678 0 
mps 50 79.113251 1 46 
mps 50 78.185486 1 36 
mps 50 77.413333 2 26 49 
mps 50 77.195129 1 20 
mps 50 77.195129 1 18 
mps 50 76.546805 2 46 61 
mps 50 76.330853 1 12 
mps 50 76.330853 1 8 
mps 50 76.159189 2 46 59 
mps 51 27.551147 0 
mps 51 26.380148 1 29 
mps 51 26.038874 1 53 
mps 51 20.729021 1 54 
mps 51 17.909086 1 47 
mps 52 -0.000000 0 
mps 53 11.401242 0 
mps 53 9.888969 1 47 
mps 53 9.888969 1 51 
mps 54 17.465982 0 
mps 54 10.643856 1 47 
mps 54 10.643856 1 51 
mps 55 96.728734 0 
mps 55 95.381494 1 3 
mps 55 95.381494 1 69 
mps 55 87.722194 1 9 
mps 55 87.721512 1 48 
mps 55 85.684243 2 9 48 
mps 55 56.352474 2 48 49 
mps 55 26.082599 1 56 
mps 55 23.496508 2 56 58 
mps 56 95.803799 0 
mps 56 88.146905 1 48 
mps 56 86.325591 1 9 
mps 56 85.769718 2 48 58 
mps 56 85.594016 2 9 48 
mps 56 58.835301 2 48 49 
mps 56 52.973091 3 48 49 58 
mps 56 25.157664 1 55 
mps 56 22.462514 2 55 58 
mps 57 11.401242 0 
mps 57 9.398744 1 5 
mps 57 9.398744 1 4 
mps 58 27.551147 0 
mps 58 27.102858 1 29 
mps 58 26.172633 2 55 56 
mps 58 23.454007 1 3 
mps 58 23.454007 1 69 
mps 59 77.470202 0 
mps 59 77.064930 1 23 
mps 59 76.176119 1 73 
mps 59 76.176119 1 74 
mps 59 75.620147 1 40 
mps 59 75.620147 1 41 
mps 59 74.799743 2 41 43 
mps 59 74.799743 2 40 43 
mps 59 74.641538 1 65 
mps 59 74.641538 1 64 
mps 59 74.522815 2 0 64 
mps 59 74.522815 2 0 65 
mps 59 68.958523 1 12 
mps 59 68.958523 1 8 
mps 59 66.171163 1 18 
mps 59 65.216301 1 19 
mps 59 64.881445 2 5 19 
mps 59 64.881445 2 4 19 
mps 59 64.804671 2 19 33 
mps 59 61.748217 2 19 64 
mps 59 61.748217 2 19 65 
mps 59 61.735187 1 20 
mps 59 61.676433 2 18 19 
mps 59 59.468384 1 10 
mps 59 58.985277 2 10 41 
mps 59 58.985277 2 10 40 
mps 59 58.355320 2 19 20 
mps 59 55.563292 2 8 10 
mps 59 55.563292 2 10 12 
mps 59 55.172014 2 10 18 
mps 59 53.355886 2 10 20 
mps 59 52.880819 2 10 19 
mps 59 47.909255 1 46 
mps 59 47.154660 2 18 46 
mps 59 46.169272 2 20 46 
mps 59 45.675310 1 67 
mps 59 45.258119 2 67 72 
mps 59 44.955193 2 46 50 
mps 59 43.785064 2 19 46 
mps 59 43.644748 2 67 74 
mps 59 43.644748 2 67 73 
mps 59 42.411306 2 10 67 
mps 59 38.571771 2 10 46 
mps 59 37.590104 2 65 67 
mps 59 37.590104 2 64 67 
mps 59 36.702730 2 46 67 
mps 59 14.399425 1 61 
mps 59 13.287712 2 60 61 
mps 60 11.401242 0 
mps 61 75.514738 0 
mps 61 74.679948 1 23 
mps 61 74.593424 1 40 
mps 61 74.593424 1 41 
mps 61 74.314127 2 41 43 
mps 61 74.314127 2 40 43 
mps 61 74.072523 1 73 
mps 61 74.072523 1 74 
mps 61 72.391100 1 65 
mps 61 72.391100 1 64 
mps 61 71.886062 2 0 64 
mps 61 71.886062 2 0 65 
mps 61 66.150634 1 8 
mps 61 66.150634 1 12 
mps 61 63.324541 1 18 
mps 61 62.244405 1 19 
mps 61 61.748917 2 5 19 
mps 61 61.748917 2 4 19 
mps 61 61.323788 2 19 33 
mps 61 58.725070 1 20 
mps 61 58.228074 2 19 64 
mps 61 58.228074 2 19 65 
mps 61 58.156290 2 18 19 
mps 61 55.237393 1 10 
mps 61 54.593602 2 19 20 
mps 61 50.980684 2 8 10 
mps 61 50.980684 2 10 12 
mps 61 50.541708 2 10 18 
mps 61 48.951712 1 46 
mps 61 48.702310 2 10 20 
mps 61 47.519277 2 10 19 
mps 61 46.973851 2 18 46 
mps 61 46.385266 2 46 50 
mps 61 45.781656 2 20 46 
mps 61 43.785064 2 19 46 
mps 61 41.584878 1 67 
mps 61 41.334420 2 20 67 
mps 61 40.803159 2 67 72 
mps 61 38.699563 2 67 74 
mps 61 38.699563 2 67 73 
mps 61 37.002842 2 10 67 
mps 61 36.797333 2 10 46 
mps 61 35.418517 2 46 67 
mps 61 31.890031 2 65 67 
mps 61 31.890031 2 64 67 
mps 61 12.443960 1 59 
mps 62 -0.000000 0 
mps 63 -0.000000 0 
mps 64 31.961624 0 
mps 64 31.865626 2 18 67 
mps 64 30.842295 1 20 
mps 64 30.390150 1 46 
mps 64 29.132960 1 59 
mps 64 28.837987 1 61 
mps 64 26.293994 2 59 67 
mps 64 25.994251 1 73 
mps 64 25.994251 1 74 
mps 64 25.994251 1 72 
mps 64 25.484518 2 59 72 
mps 64 25.243448 2 61 72 
mps 64 24.684353 2 61 67 
mps 64 23.782046 2 20 72 
mps 64 21.307830 2 72 73 
mps 64 21.307830 2 72 74 
mps 64 6.643856 1 65 
mps 65 31.961624 0 
mps 65 31.865626 2 18 67 
mps 65 30.842295 1 20 
mps 65 30.390150 1 46 
mps 65 29.132960 1 59 
mps 65 28.837987 1 61 
mps 65 26.293994 2 59 67 
mps 65 25.994251 1 73 
mps 65 25.994251 1 74 
mps 65 25.994251 1 72 
mps 65 25.484518 2 59 72 
mps 65 25.243448 2 61 72 
mps 65 24.684353 2 61 67 
mps 65 23.782046 2 20 72 
mps 65 21.307830 2 72 73 
mps 65 21.307830 2 72 74 
mps 65 6.643856 1 64 
mps 66 -0.000000 0 
mps 67 73.469074 0 
mps 67 72.519132 1 0 
mps 67 70.962509 2 0 55 
mps 67 63.312652 1 10 
mps 67 63.178737 1 8 
mps 67 63.178737 1 12 
mps 67 62.503105 2 8 64 
mps 67 62.503105 2 12 65 
mps 67 62.503105 2 12 64 
mps 67 62.503105 2 8 65 
mps 67 60.314424 1 18 
mps 67 59.661538 2 8 10 
mps 67 59.661538 2 10 12 
mps 67 58.934491 1 46 
mps 67 58.477166 2 18 65 
mps 67 58.477166 2 18 64 
mps 67 57.712787 2 10 18 
mps 67 57.644885 2 18 46 
mps 67 55.535586 1 20 
mps 67 55.271145 2 20 46 
mps 67 54.762910 2 10 20 
mps 67 53.015436 2 10 46 
mps 67 48.966768 1 19 
mps 67 48.326747 2 18 19 
mps 67 46.109037 2 19 20 
mps 67 45.742224 2 5 19 
mps 67 45.742224 2 4 19 
mps 67 42.456602 2 10 19 
mps 67 41.674182 1 59 
mps 67 41.467706 2 18 59 
mps 67 41.145156 2 59 72 
mps 67 40.061021 2 20 59 
mps 67 39.782227 2 19 46 
mps 67 39.539215 1 61 
mps 67 39.407364 2 18 61 
mps 67 38.835216 2 59 65 
mps 67 38.835216 2 59 64 
mps 67 38.699563 2 61 72 
mps 67 38.144936 2 20 61 
mps 67 35.385581 2 61 65 
mps 67 35.385581 2 61 64 
mps 67 32.686438 2 19 59 
mps 67 31.241595 2 19 61 
mps 68 71.329633 0 
mps 69 22.761114 0 
mps 69 21.413874 1 55 
mps 69 18.663973 1 58 
mps 69 6.643856 1 3 
mps 70 56.258015 0 
mps 70 55.741083 1 19 
mps 70 54.883340 1 41 
mps 70 54.883340 1 40 
mps 70 54.726688 2 20 40 
mps 70 54.726688 2 20 41 
mps 70 49.260716 2 41 46 
mps 70 49.260716 2 40 46 
mps 70 11.730023 1 0 
mps 71 31.961624 0 
mps 72 17.465982 0 
mps 72 11.498609 1 65 
mps 72 11.498609 1 64 
mps 73 17.465982 0 
mps 73 17.342493 1 10 
mps 73 16.816189 1 46 
mps 73 16.171899 1 59 
mps 73 16.023768 1 61 
mps 73 15.340887 1 8 
mps 73 15.340887 1 12 
mps 73 14.927275 1 18 
mps 73 14.927275 1 20 
mps 73 11.498609 1 65 
mps 73 11.498609 1 64 
mps 73 6.643856 1 74 
mps 74 17.465982 0 
mps 74 17.342493 1 10 
mps 74 16.816189 1 46 
mps 74 16.171899 1 59 
mps 74 16.023768 1 61 
mps 74 15.340887 1 8 
mps 74 15.340887 1 12 
mps 74 14.927275 1 20 
mps 74 14.927275 1 18 
mps 74 11.498609 1 65 
mps 74 11.498609 1 64 
mps 74 6.643856 1 73 
mps 75 -0.000000 0 
MPSList_Ends
